<?xml version="1.0" encoding="UTF-8"?>
<!-- Created with Inkscape (http://www.inkscape.org/) -->
<svg width="291.02" height="291.02" version="1.1" viewBox="0 0 291.02 291.02" xml:space="preserve" xmlns="http://www.w3.org/2000/svg"><defs><clipPath id="clipPath16"><path d="M 0,218.268 H 218.268 V 0 H 0 Z"/></clipPath></defs><g transform="matrix(1.3333 0 0 -1.3333 0 291.02)"><g clip-path="url(#clipPath16)"><g transform="translate(116.91 203.35)"><path d="m0 0c-3.43 0-6.214-2.781-6.214-6.213 0-0.219 0.012-0.434 0.035-0.645 4.132-0.065 8.19-0.42 12.158-1.049 0.154 0.538 0.234 1.107 0.234 1.694 0 3.432-2.78 6.213-6.213 6.213m64.346-33.09c-2.428 2.425-6.361 2.425-8.79 0-0.153-0.158-0.299-0.315-0.433-0.481 2.878-2.968 5.496-6.089 7.856-9.343 0.491 0.277 0.95 0.619 1.367 1.034 2.426 2.428 2.426 6.361 0 8.79m-11.439 11.542c2.427-2.429 2.427-6.361 0-8.787-0.18-0.18-0.367-0.346-0.559-0.497-2.73 2.576-5.588 4.937-8.552 7.086l-0.754 0.754c0.282 0.517 0.638 1.005 1.077 1.444 2.425 2.425 6.363 2.425 8.788 0m7.528-3.927c1.432 1.627 0.684 5.146-0.792 6.266 1.925 1.652 4.655 0.506 6.26-1.364 1.456-1.694 2.219-4.343 0.798-5.765-1.951 1.907-4.325 2.027-6.266 0.863m4.954-2.322c-2.564 1.293-5.005 0.064-7.131-1.655 2.334 0.387 4.186 0.074 6.124-1.371 2.207-1.645 3.154 1.945 1.007 3.026m-7.185 7.291c1.288-2.563 0.063-5.004-1.66-7.131 0.392 2.336 0.077 4.19-1.367 6.124-1.649 2.21 1.944 3.154 3.027 1.007m28.239-81.484c0 3.431-2.781 6.215-6.214 6.215-0.218 0-0.432-0.013-0.645-0.035-0.063-4.132-0.42-8.191-1.048-12.159 0.539-0.155 1.106-0.234 1.693-0.234 3.433 0 6.214 2.781 6.214 6.213m0.074 16.249c0-3.432-2.782-6.214-6.214-6.214-0.254 0-0.5 0.016-0.747 0.046-0.109 3.753-0.459 7.442-1.033 11.061v1.062c0.564 0.169 1.161 0.26 1.78 0.26 3.432 0 6.214-2.782 6.214-6.215m2.547-8.1c2.162 0.138 4.122 3.157 3.872 4.992 2.528-0.193 3.648-2.932 3.462-5.389-0.17-2.23-1.502-4.643-3.513-4.643-0.031 2.728-1.623 4.492-3.821 5.04m1.861-5.143c-0.899 2.724-3.493 3.584-6.214 3.87 1.925-1.373 3.016-2.907 3.362-5.297 0.397-2.726 3.606-0.857 2.852 1.427m0.074 10.238c-0.899-2.728-3.491-3.584-6.215-3.873 1.929 1.376 3.016 2.91 3.362 5.3 0.399 2.727 3.606 0.853 2.853-1.427m-37.649-77.59c2.428 2.429 2.428 6.361 0 8.79-0.154 0.154-0.315 0.299-0.479 0.433-2.968-2.878-6.092-5.495-9.341-7.856 0.272-0.491 0.615-0.95 1.033-1.367 2.425-2.425 6.361-2.425 8.787 0m11.542 11.439c-2.425-2.427-6.358-2.427-8.787 0-0.176 0.18-0.344 0.367-0.498 0.56 2.577 2.729 4.941 5.588 7.091 8.552l0.75 0.754c0.519-0.283 1.007-0.639 1.447-1.079 2.426-2.425 2.426-6.361-3e-3 -8.787m-3.924-7.529c1.627-1.43 5.146-0.682 6.266 0.794 1.652-1.926 0.503-4.655-1.364-6.26-1.697-1.457-4.347-2.219-5.768-0.799 1.909 1.951 2.031 4.324 0.866 6.265m-2.322-4.952c1.292 2.563 0.063 5.004-1.659 7.131 0.391-2.335 0.077-4.187-1.366-6.124-1.649-2.207 1.943-3.154 3.025-1.007m7.292 7.185c-2.564-1.289-5.005-0.063-7.133 1.659 2.333-0.391 4.188-0.077 6.125 1.366 2.207 1.649 3.153-1.943 1.008-3.025m-81.488-28.24c3.433 0 6.215 2.782 6.215 6.215 0 0.217-0.01 0.432-0.033 0.643-4.132 0.065-8.189 0.421-12.162 1.05-0.15-0.539-0.234-1.107-0.234-1.693 0-3.433 2.782-6.215 6.214-6.215m16.252-0.073c-3.433 0-6.213 2.78-6.213 6.213 0 0.253 0.015 0.501 0.044 0.748 3.75 0.108 7.443 0.458 11.058 1.033h1.065c0.171-0.565 0.26-1.161 0.26-1.781 0-3.433-2.782-6.213-6.214-6.213m-8.1-2.548c0.138-2.162 3.153-4.122 4.992-3.871-0.196-2.529-2.932-3.648-5.39-3.463-2.23 0.17-4.645 1.502-4.645 3.513 2.73 0.032 4.494 1.623 5.043 3.821m-5.146-1.86c2.727 0.898 3.583 3.493 3.873 6.214-1.374-1.925-2.91-3.016-5.297-3.363-2.727-0.398-0.856-3.605 1.424-2.851m10.24-0.074c-2.726 0.897-3.583 3.49-3.872 6.213 1.376-1.927 2.91-3.015 5.297-3.361 2.73-0.398 0.857-3.606-1.425-2.852m-77.589 37.649c2.428-2.429 6.362-2.429 8.787 0 0.154 0.154 0.298 0.315 0.432 0.479-2.874 2.967-5.492 6.092-7.856 9.341-0.488-0.273-0.95-0.616-1.363-1.033-2.425-2.426-2.425-6.362 0-8.787m11.44-11.542c-2.429 2.425-2.429 6.358 0 8.786 0.176 0.177 0.365 0.344 0.558 0.498 2.729-2.577 5.588-4.941 8.552-7.09l0.752-0.75c-0.28-0.521-0.639-1.008-1.076-1.448-2.428-2.425-6.361-2.425-8.786 4e-3m-7.53 3.923c-1.433-1.626-0.683-5.146 0.793-6.265-1.928-1.652-4.655-0.504-6.259 1.364-1.456 1.696-2.224 4.346-0.802 5.767 1.951-1.908 4.324-2.03 6.268-0.866m-4.953 2.322c2.563-1.292 5.002-0.064 7.128 1.659-2.332-0.391-4.186-0.077-6.121 1.366-2.21 1.65-3.153-1.944-1.007-3.025m7.186-7.291c-1.292 2.563-0.064 5.004 1.656 7.131-0.388-2.332-0.075-4.187 1.369-6.124 1.649-2.207-1.944-3.153-3.025-1.007m-28.24 81.487c0-3.432 2.781-6.214 6.214-6.214 0.218 0 0.433 0.01 0.645 0.032 0.064 4.133 0.42 8.19 1.049 12.162-0.539 0.151-1.107 0.234-1.694 0.234-3.433 0-6.214-2.781-6.214-6.214m-0.074-16.251c0 3.432 2.782 6.213 6.214 6.213 0.25 0 0.5-0.016 0.745-0.044 0.108-3.751 0.461-7.444 1.035-11.058v-1.066c-0.565-0.17-1.161-0.26-1.783-0.26-3.429 0-6.211 2.781-6.211 6.215m-2.547 8.1c-2.166-0.139-4.123-3.154-3.872-4.992-2.531 0.195-3.648 2.932-3.461 5.392 0.169 2.227 1.501 4.642 3.513 4.642 0.028-2.729 1.623-4.494 3.82-5.042m-1.86 5.145c0.897-2.727 3.49-3.584 6.21-3.872-1.924 1.373-3.012 2.909-3.358 5.296-0.399 2.728-3.607 0.857-2.852-1.424m-0.078-10.239c0.898 2.726 3.493 3.583 6.214 3.871-1.925-1.376-3.013-2.91-3.362-5.296-0.394-2.73-3.603-0.857-2.852 1.425m37.65 77.588c-2.425-2.427-2.425-6.361 0-8.786 0.157-0.154 0.315-0.298 0.481-0.433 2.967 2.874 6.089 5.491 9.342 7.856-0.276 0.487-0.62 0.95-1.033 1.363-2.429 2.426-6.361 2.426-8.79 0m-11.542-11.439c2.428 2.428 6.361 2.428 8.786 0 0.18-0.177 0.346-0.366 0.497-0.558-2.576-2.731-4.937-5.589-7.086-8.553l-0.755-0.751c-0.516 0.279-1.004 0.638-1.442 1.075-2.426 2.429-2.426 6.362 0 8.787m3.925 7.529c-1.626 1.434-5.144 0.683-6.265-0.792-1.651 1.927-0.506 4.655 1.364 6.258 1.694 1.457 4.343 2.224 5.765 0.803-1.906-1.951-2.028-4.325-0.864-6.269m2.324 4.954c-1.294-2.564-0.065-5.003 1.654-7.129-0.388 2.332-0.073 4.186 1.371 6.121 1.649 2.211-1.944 3.153-3.025 1.008m-7.292-7.187c2.562 1.293 5.005 0.065 7.131-1.656-2.336 0.389-4.19 0.075-6.124-1.369-2.21-1.649-3.154 1.944-1.007 3.025m65.235 28.315c3.433 0 6.214-2.782 6.214-6.215 0-0.25-0.016-0.5-0.045-0.744-3.753-0.109-7.442-0.462-11.062-1.036h-1.061c-0.17 0.565-0.261 1.161-0.261 1.78 0 3.433 2.782 6.215 6.215 6.215m8.101 2.546c-0.138 2.166-3.158 4.123-4.992 3.873 0.192 2.53 2.932 3.648 5.389 3.461 2.23-0.17 4.642-1.501 4.642-3.513-2.727-0.028-4.492-1.623-5.039-3.821m5.142 1.861c-2.724-0.898-3.584-3.49-3.869-6.21 1.373 1.924 2.906 3.011 5.296 3.358 2.727 0.398 0.857 3.607-1.427 2.852m-10.237 0.077c2.727-0.898 3.583-3.494 3.872-6.214-1.376 1.924-2.909 3.012-5.299 3.362-2.728 0.395-0.854 3.603 1.427 2.852" fill="#279684" fill-rule="evenodd"/></g><g transform="translate(109.09 171.03)"><path d="m0 0c0.025-0.799 0.311-1.001 0.744-1.376l0.111-0.039-2e-3 -0.08c-0.388 0.103-0.741 0.106-1.029 0.379-0.226 0.208-0.408 0.577-0.546 1.273 0.526 0.761 1.235 2.083 1.334 3.66 0.112 1.822-0.516 3.863-2.037 3.815-0.298-6e-3 -0.923 0.119-1.469-0.071-1.248-0.432-1.367-2.018-1.306-3.406 0.039-0.882 0.042-1.676 0.254-2.172 0.497-1.161 1.787-1.868 1.88-3.247-0.305-0.025-0.497-0.077-0.726-0.081-0.381-2e-3 -0.927-1.866-1.476-1.86-1.048 0.01-2.46-0.535-2.523-0.567-1.467-0.7-1.676-3.639-1.73-3.728-0.44-0.722-1.453-6.185-1.53-6.26-0.057-0.054 0.847-1.591 1.931-2.79 0.629-0.693 1.415-1.223 1.864-1.431l1.376-0.85-3e-3 -0.01 0.907-0.509c0.322-0.18 0.633-0.084 0.937-0.142 0.039-6e-3 0.074 0.016 0.11 9e-3 0.022-2e-3 0.506-0.082 0.613-0.101 0.304-0.053 1.029 0.08 1.253 5e-3 -0.028 0.014-0.834 0.091-1.026 0.122-0.289 0.051-0.465 0.404-0.231 0.514 0.164 2e-3 0.372-0.061 0.838 0.054 0.276 0.071 0.91-0.227 1.35-0.286 0.963-0.42 1.476-0.041 2.281 0.469 0.067 0.058 0.132 0.119 0.189 0.18-0.106 0.189-0.453-0.109-0.606-0.202-0.167-0.036-0.609-0.356-0.911-0.433-0.478 0.026-0.879 0.084-1.309 0.157 0.275 0.025 0.623-0.096 1.38-0.052 0.455 0.148 1.061 0.542 1.292 0.69-0.169 0.231-0.388 9e-3 -0.484-0.038-0.189-0.091-0.806-0.305-0.991-0.318-0.077-6e-3 -0.588 0.022-0.918 0.026-0.177 3e-3 -0.388-0.035-0.548-0.026 0.243 0.054 0.512 0.087 0.75 0.157 0.074 4e-3 0.362-3e-3 0.507 7e-3 0.427-0.071 0.85 9e-3 0.758 0.292-0.091 0-0.637 0.07-0.87 0.121-0.356-0.021-0.876-6e-3 -0.991-0.016-1.348-0.082-2.461-0.369-3.751 0.322-0.51 0.269-1.039 0.68-1.594 1.337-0.376 0.485-1.518 2.262-2.114 2.702-0.282 0.205 1.447 4.036 1.475 5.629 4e-3 0.209 0.385 0.918 0.389 1.594 0 0.036 0.022 0.074 0.064 0.113 0.051-0.109 0.131-0.202 0.234-0.263 0-0.227-0.013-0.456-0.038-0.68 0.019-0.032 0.044-0.045 0.115-0.116l0.058 0.593c2.643 0.514 3.445 1.377 4.536 2.343 0.266 0.128 0.587 0.497 0.843 0.693l-2.123-4.424c-0.783-1.444-1.668-2.871-2.46-4.302l-0.011 0.975c0.408 0.151 0.068-0.221 0.507 0.221-0.362 0.186-0.573 0.331-0.638 0.857l1.235 0.208c-0.189 0.164-0.028 0.074-0.294 0.196l-0.947 0.164c-0.154 0.42-0.408 0.619-0.571 1.107-0.084 0.371-0.154 0.796-0.26 1.158l-0.163-1.271v3e-3c-0.421-1.742-1.009-3.002-1.691-4.529 0.275-0.427 0.628-0.607 0.991-1.046 0.366-0.449 0.497-0.786 0.847-1.236l0.013 0.046 0.346-0.828c6e-3 -0.013 0.311-0.096 0.625-0.19-0.201 0.184-0.349 0.35-0.426 0.498-0.356 0.667 0.376 1.104 1.553 2.069l2.11 2.111c-0.535-0.452-1.096-0.766-1.616-1.258-0.613-0.577-2.182-1.276-2.496-2.068l-0.158 0.297c0.129 0.173 0.068 0.107 0.171 0.364 0.577 1.465 0.625 0.535 1.953 2.896 0.385 0.683 0.574 1.055 0.843 1.835 0.387 1.12 3.585 5.778 4.075 7.866 0.074 0.192 0.09 0.61 0 0.79l0.825-0.061c0.68-0.649 1.344-0.578 1.584-1.178 0.21-0.555-0.388-5.075-0.462-6.067-0.214-2.855-0.631-3.326-1.713-5.228 0.402 0.198 0.94 0.974 1.222 1.308 0.017-0.493-0.384-1.283-0.528-1.799-0.344-1.235 0.593-2.165 0.789-2.737h0.026l0.15-0.311c0.086 0.273 0.154 0.555 0.243 0.841-0.358 0.288-1.227 1.055-0.715 1.983 0.537 0.06 1.29-1.114 2.053-1.749 0.273-0.225 0.491-0.424 0.664-0.6-0.275 0.481-0.57 0.882-0.914 1.223-0.458 0.72-1.042 1.401-1.568 1.638 0.138 0.45 0.58 2.034 0.629 2.641 0.112 1.357 0.339 2.813 0.385 3.785-0.2 0.792 0.105 3.943 0.176 4.72l0.063-0.081c0.158-0.517-0.073 0.032 0.152-0.288 0.179-0.254 1.546-1.252 1.639-2.705-3e-3 0.384-0.885 0.689-1.289 0.998 0.372-0.388 1.453-1.476 1.652-2.282 0.137-0.551 0.651-3.111 0.301-3.624-0.687 0.811-1.427 1.636-2.079 2.474 0.792-1.223 1.964-2.844 2.076-3.164 0.343-0.989 0.173-2.481 0.131-3.85-0.016-0.584-0.465-1.783-0.74-2.521 0.021-0.312-0.122-0.593-0.251-0.999 0.391 0.075 1.164 1.461 1.26 1.717 0.427-0.015 1.146-0.779 1.399-1.113 1.203-1.572 0.902-2.672 0.087-4.023 1.338 1.242 1.014 2.65 0.649 3.388 1.411-0.282 3.663-1.319 4.365-2.634 0.505-1.225-0.243-2.371-0.66-2.958-0.337-0.478-1.136-0.67-1.881-0.857-2.892-0.612-6.627-0.101-7.253 0.039-3.272 0.748-6.166 0.459-8.152-0.077-1.761-0.02-3.223-0.586-5.351 2.621 1.063-2.281 2.772-2.871 3.328-2.964-1.114-0.378-2.263-0.507-3.667-0.357-3.856 0.414-3.959 0.373-4.922 2.821-0.682 1.738 0.505 2.236 1.816 2.848 1.546 1.142 3.092 1.31 4.286 1.817 0.612 0.259 1.091 0.817 1.515 1.208-1.05 0.575-1.249 1.521-2.069 2.352-0.841 0.944-1.149 1.354-0.825 2.303 0.218 0.482 0.452 2.712 0.83 4.039 0.1 0.331 0.209 0.654 0.322 0.976 0.089 0.516 0.169 1.026 0.227 1.511 0.151 1.254 1.2 3.567 2.768 3.731 1.229 0.124 2.843 0.336 2.789 2.079l1.071-0.45c-0.305 0.266-0.95 1.155-1.158 1.402-1.829 2.188-2.027 8.162 2.069 7.87 4.231-0.303 2.955-6.372 1.627-8.271m1.938-20.172-0.434-0.185c-0.799-0.369-3.394-0.678-4.231-0.598-0.395 0.038-1.13 0.209-1.441 0.334 0.029 0.186 0.806-0.065 1.451-0.125 0.471-7e-3 1.395 0.157 1.572 0.193-0.18-0.011-1.024-0.177-1.576-0.133-0.767 0.065-1.764 0.402-1.877 0.449-0.019 0.219 1.463-0.15 1.881-0.234 0.705 0.02 1.196 0.087 1.507 0.161-0.26-9e-3 -0.984-0.131-1.488-0.115-0.783 0.185-1.998 0.487-2.005 0.529 0.041 0.179 1.264-0.038 2.027-0.19 0.41-0.016 1.071-0.044 1.347 0.026-0.349 0.026-0.741-0.115-1.321 0.01-0.863 0.177-1.601 0.336-1.585 0.401 0.138 0.292 1.838-0.222 2.361-0.084 0.398 0.107 0.883 0.119 1.254 0.145-0.035 0.013-0.256-0.068-0.824 0.212-0.218-0.013-1.001 0.022-0.786 0.314 0.083 0.055 0.578-0.054 0.812-3e-3 1.052-0.148 2.072-0.876 3.628 0.359l0.016 3e-3c0.728 0.568 0.827 1.203 1.11 1.941 0.263-0.254 0.642-0.693 0.982-1.177-0.668-0.734-1.011-1.04-1.829-1.803-0.186-0.173-0.369-0.315-0.551-0.43m2.565 1.954c0.488-0.758 0.819-1.569 0.453-1.947-1.062-0.472-1.053 0.231-1.27 0.913z" fill="#f47216" fill-rule="evenodd"/></g><g transform="translate(109.19 47.154)"><path d="m0 0c-0.026 0.799-0.311 1.002-0.745 1.376l-0.112 0.039 4e-3 0.08c0.388-0.102 0.741-0.105 1.029-0.378 0.222-0.208 0.408-0.577 0.546-1.274-0.526-0.76-1.235-2.081-1.334-3.66-0.113-1.822 0.516-3.863 2.037-3.814 0.297 5e-3 0.923-0.119 1.469 0.07 1.248 0.434 1.366 2.018 1.306 3.407-0.039 0.882-0.042 1.675-0.254 2.169-0.498 1.165-1.787 1.87-1.88 3.249 0.305 0.026 0.497 0.077 0.725 0.077 0.382 7e-3 0.927 1.871 1.476 1.864 1.049-9e-3 2.46 0.536 2.524 0.568 1.466 0.7 1.676 3.638 1.73 3.728 0.439 0.722 1.453 6.185 1.53 6.259 0.057 0.054-0.847 1.591-1.931 2.79-0.629 0.694-1.416 1.223-1.864 1.432l-1.376 0.85 2e-3 9e-3 -0.907 0.51c-0.321 0.18-0.632 0.084-0.937 0.138-0.039 9e-3 -0.074-0.013-0.109-6e-3 -0.023 3e-3 -0.507 0.083-0.612 0.103-0.306 0.051-1.03-0.081-1.255-7e-3 0.029-0.013 0.834-0.09 1.026-0.122 0.29-0.051 0.465-0.408 0.232-0.513-0.164-3e-3 -0.372 0.061-0.837-0.058-0.277-0.068-0.911 0.228-1.352 0.289-0.962 0.42-1.476 0.042-2.28-0.468-0.068-0.059-0.132-0.12-0.189-0.18 0.105-0.19 0.452 0.109 0.605 0.202 0.168 0.035 0.61 0.356 0.911 0.43 0.479-0.022 0.88-0.08 1.31-0.154-0.276-0.026-0.623 0.093-1.38 0.051-0.455-0.151-1.061-0.542-1.292-0.689 0.169-0.231 0.388-0.01 0.484 0.038 0.189 0.09 0.805 0.305 0.992 0.317 0.077 7e-3 0.586-0.022 0.916-0.025 0.177-3e-3 0.388 0.035 0.549 0.025-0.243-0.054-0.512-0.086-0.75-0.157-0.074-3e-3 -0.363 3e-3 -0.507-6e-3 -0.427 0.071-0.85-0.01-0.758-0.292 0.09 0 0.636-0.073 0.87-0.122 0.356 0.023 0.876 7e-3 0.991 0.012 1.348 0.088 2.46 0.373 3.751-0.316 0.509-0.27 1.035-0.681 1.594-1.338 0.375-0.488 1.517-2.263 2.114-2.701 0.282-0.205-1.447-4.036-1.475-5.631-4e-3 -0.211-0.386-0.918-0.389-1.597 0-0.036-0.022-0.071-0.064-0.11-0.051 0.11-0.135 0.203-0.234 0.264 0 0.228 0.012 0.455 0.038 0.68-0.019 0.029-0.045 0.044-0.115 0.116l-0.058-0.594c-2.644-0.516-3.445-1.38-4.536-2.342-0.267-0.129-0.587-0.498-0.844-0.693l2.124 4.424c0.782 1.443 1.668 2.871 2.46 4.302l0.01-0.975c-0.408-0.151-0.067 0.221-0.506-0.224 0.362-0.184 0.573-0.331 0.638-0.854l-1.236-0.209c0.19-0.163 0.029-0.074 0.295-0.196l0.946-0.163c0.154-0.42 0.408-0.619 0.572-1.107 0.084-0.372 0.154-0.795 0.26-1.158l0.163 1.27v-3e-3c0.42 1.743 1.008 3.004 1.691 4.53-0.276 0.427-0.629 0.607-0.991 1.046-0.366 0.446-0.497 0.785-0.847 1.231l-0.014-0.041-0.346 0.828c-5e-3 0.012-0.311 0.096-0.625 0.189 0.202-0.183 0.349-0.35 0.426-0.497 0.357-0.671-0.375-1.104-1.553-2.07l-2.11-2.111c0.536 0.453 1.097 0.768 1.617 1.258 0.612 0.578 2.182 1.278 2.495 2.066l0.158-0.295c-0.128-0.173-0.067-0.106-0.17-0.366-0.577-1.463-0.626-0.533-1.953-2.894-0.385-0.683-0.575-1.058-0.845-1.837-0.385-1.118-3.583-5.775-4.074-7.864-0.073-0.192-0.089-0.609 0-0.789l-0.824 0.061c-0.68 0.648-1.344 0.578-1.585 1.174-0.209 0.558 0.388 5.076 0.463 6.07 0.213 2.855 0.631 3.327 1.712 5.229-0.401-0.199-0.939-0.975-1.222-1.309-0.016 0.495 0.384 1.28 0.529 1.8 0.343 1.235-0.593 2.166-0.789 2.737h-0.026l-0.15 0.31c-0.087-0.271-0.154-0.554-0.245-0.84 0.36-0.288 1.229-1.055 0.716-1.982-0.535-0.065-1.289 1.113-2.053 1.748-0.273 0.224-0.49 0.423-0.665 0.6 0.276-0.484 0.572-0.885 0.915-1.222 0.459-0.722 1.043-1.403 1.568-1.64-0.136-0.448-0.58-2.037-0.628-2.639-0.112-1.358-0.34-2.814-0.385-3.786 0.199-0.793-0.106-3.943-0.176-4.719l-0.065 0.08c-0.16 0.516 0.074-0.033-0.15 0.289-0.18 0.253-1.546 1.25-1.64 2.703 3e-3 -0.384 0.886-0.689 1.29-0.997-0.372 0.388-1.453 1.476-1.652 2.277-0.138 0.556-0.651 3.116-0.301 3.629 0.686-0.812 1.427-1.636 2.078-2.473-0.792 1.222-1.963 2.842-2.076 3.163-0.343 0.988-0.173 2.476-0.131 3.849 0.016 0.584 0.465 1.785 0.741 2.523-0.022 0.307 0.122 0.593 0.25 0.997-0.391-0.074-1.164-1.46-1.26-1.716-0.427 0.016-1.146 0.778-1.399 1.112-1.203 1.572-0.901 2.672-0.086 4.024-1.338-1.245-1.014-2.651-0.649-3.389-1.411 0.283-3.663 1.319-4.366 2.635-0.504 1.226 0.244 2.37 0.661 2.957 0.337 0.479 1.136 0.671 1.88 0.857 2.893 0.613 6.628 0.103 7.253-0.039 3.273-0.747 6.167-0.458 8.152 0.077 1.761 0.02 3.224 0.588 5.35-2.621-1.061 2.282-2.771 2.871-3.325 2.964 1.112 0.376 2.261 0.507 3.666 0.357 3.856-0.414 3.959-0.373 4.921-2.821 0.683-1.738-0.504-2.235-1.815-2.848-1.547-1.142-3.093-1.308-4.286-1.815-0.613-0.261-1.091-0.822-1.515-1.21 1.05-0.574 1.248-1.52 2.069-2.352 0.841-0.943 1.149-1.354 0.825-2.303-0.218-0.481-0.452-2.711-0.831-4.039-0.099-0.331-0.209-0.654-0.321-0.974-0.089-0.518-0.169-1.028-0.227-1.513-0.154-1.254-1.2-3.57-2.77-3.73-1.227-0.125-2.841-0.337-2.787-2.079l-1.072 0.45c0.306-0.267 0.95-1.156 1.159-1.403 1.828-2.187 2.027-8.16-2.07-7.868-4.231 0.297-2.954 6.37-1.626 8.269m-1.938 20.173 0.434 0.186c0.798 0.369 3.394 0.676 4.231 0.596 0.394-0.038 1.129-0.208 1.44-0.334-0.028-0.186-0.805 0.061-1.45 0.126-0.472 3e-3 -1.395-0.158-1.572-0.196 0.18 0.013 1.023 0.18 1.576 0.135 0.766-0.065 1.764-0.401 1.876-0.449 0.019-0.218-1.462 0.15-1.88 0.234-0.706-0.02-1.196-0.086-1.507-0.161 0.259 0.01 0.985 0.132 1.488 0.116 0.783-0.186 1.999-0.487 2.005-0.529-0.041-0.18-1.264 0.038-2.028 0.185-0.41 0.02-1.071 0.049-1.346-0.022 0.346-0.025 0.74 0.115 1.321-0.012 0.863-0.174 1.601-0.334 1.585-0.398-0.138-0.292-1.838 0.221-2.361 0.083-0.398-0.105-0.883-0.119-1.255-0.144 0.035-0.014 0.257 0.063 0.825-0.211 0.217 0.012 1.001-0.023 0.785-0.315-0.083-0.055-0.577 0.054-0.811 0-1.053 0.151-2.072 0.878-3.628-0.36h-0.016c-0.729-0.567-0.827-1.203-1.11-1.941-0.263 0.254-0.642 0.694-0.982 1.178 0.667 0.735 1.011 1.039 1.828 1.803 0.187 0.173 0.369 0.315 0.552 0.43m-2.566-1.954c-0.488 0.757-0.819 1.566-0.452 1.947 1.062 0.469 1.052-0.231 1.27-0.914z" fill="#f47216" fill-rule="evenodd"/></g><g transform="translate(170.94 108.77)"><path d="m0 0c-0.799-0.026-1.002-0.311-1.376-0.745l-0.036-0.112-0.083 4e-3c0.102 0.388 0.109 0.74 0.378 1.029 0.212 0.221 0.581 0.408 1.277 0.545 0.757-0.525 2.082-1.235 3.661-1.334 1.818-0.112 3.862 0.517 3.81 2.037-3e-3 0.299 0.119 0.925-0.07 1.47-0.434 1.247-2.014 1.366-3.404 1.305-0.885-0.039-1.677-0.042-2.172-0.254-1.161-0.496-1.866-1.787-3.249-1.88-0.023 0.305-0.074 0.498-0.077 0.726-4e-3 0.381-1.871 0.927-1.864 1.476 0.012 1.046-0.536 2.46-0.565 2.524-0.703 1.466-3.64 1.674-3.728 1.73-0.725 0.439-6.188 1.453-6.261 1.53-0.055 0.058-1.588-0.848-2.788-1.932-0.697-0.628-1.226-1.415-1.435-1.864l-0.85-1.376-5e-3 3e-3 -0.514-0.911c-0.18-0.32-0.081-0.629-0.138-0.933-6e-3 -0.042 0.013-0.074 0.01-0.109-7e-3 -0.026-0.087-0.507-0.103-0.617-0.055-0.301 0.077-1.029 3e-3 -1.25 0.013 0.028 0.09 0.834 0.125 1.026 0.052 0.289 0.405 0.462 0.514 0.231 3e-3 -0.166-0.061-0.372 0.054-0.841 0.068-0.275-0.228-0.907-0.289-1.347-0.417-0.962-0.042-1.476 0.469-2.283v2e-3c0.058-0.07 0.119-0.132 0.18-0.189 0.189 0.106-0.11 0.453-0.203 0.607-0.035 0.164-0.356 0.61-0.43 0.91 0.023 0.476 0.084 0.88 0.154 1.31 0.026-0.276-0.093-0.626-0.051-1.38 0.151-0.456 0.542-1.065 0.693-1.293 0.231 0.171 0.01 0.385-0.039 0.484-0.092 0.19-0.308 0.806-0.32 0.992-4e-3 0.077 0.023 0.584 0.028 0.917 0 0.177-0.038 0.388-0.028 0.549 0.054-0.248 0.089-0.514 0.16-0.751 3e-3 -0.074-3e-3 -0.362 3e-3 -0.507-0.07-0.429 0.013-0.85 0.292-0.756 0 0.089 0.073 0.631 0.122 0.869-0.019 0.355-7e-3 0.876-0.012 0.991-0.084 1.347-0.373 2.457 0.317 3.75 0.272 0.507 0.68 1.036 1.337 1.594 0.488 0.376 2.266 1.518 2.702 2.114 0.208 0.283 4.036-1.446 5.63-1.475 0.212-4e-3 0.918-0.385 1.597-0.389 0.036 0 0.071-0.022 0.11-0.063-0.11-0.052-0.2-0.136-0.261-0.238-0.227 4e-3 -0.455 0.016-0.683 0.042-0.029-0.019-0.044-0.045-0.116-0.115l0.594-0.058c0.516-2.644 1.38-3.446 2.342-4.537 0.129-0.266 0.5-0.586 0.696-0.843l-4.424 2.123c-1.446 0.783-2.874 1.668-4.305 2.462l0.976 9e-3c0.153-0.408-0.222-0.071 0.224-0.507 0.186 0.363 0.33 0.575 0.856 0.638l0.207-1.235c0.162 0.189 0.073 0.028 0.197 0.295l0.161 0.947c0.42 0.15 0.619 0.407 1.107 0.571 0.376 0.079 0.796 0.154 1.158 0.259l-1.267 0.164c-1.743 0.42-3.003 1.008-4.527 1.691-0.43-0.276-0.61-0.629-1.049-0.991-0.445-0.367-0.783-0.502-1.231-0.848l0.041-0.012-0.828-0.35c-9e-3 -4e-3 -0.096-0.308-0.189-0.622 0.186 0.202 0.353 0.349 0.501 0.426 0.668 0.357 1.103-0.376 2.066-1.552l2.114-2.111c-0.456 0.535-0.767 1.096-1.261 1.617-0.578 0.612-1.277 2.181-2.066 2.495l0.295 0.158c0.177-0.129 0.109-0.068 0.366-0.17 1.465-0.578 0.533-0.626 2.894-1.954 0.686-0.385 1.058-0.578 1.838-0.844 1.117-0.388 5.774-3.584 7.866-4.074 0.193-0.073 0.606-0.09 0.786 0l-0.061-0.825c-0.648-0.68-0.578-1.343-1.174-1.588-0.556-0.208-5.076 0.392-6.067 0.466-2.854 0.215-3.33 0.632-5.232 1.713 0.199-0.401 0.979-0.944 1.309-1.222-0.494-0.02-1.28 0.381-1.8 0.526-1.235 0.343-2.165-0.591-2.737-0.787v-0.025l-0.31-0.151c0.272-0.086 0.555-0.154 0.84-0.243 0.292 0.358 1.056 1.225 1.983 0.715 0.064-0.535-1.111-1.293-1.745-2.053-0.228-0.273-0.427-0.491-0.604-0.665 0.485 0.277 0.885 0.572 1.222 0.915 0.723 0.458 1.403 1.042 1.64 1.568 0.449-0.137 2.037-0.58 2.643-0.631 1.355-0.113 2.81-0.341 3.785-0.383 0.793 0.196 3.944-0.105 4.72-0.176l-0.08-0.063c-0.516-0.161 0.029 0.073-0.292-0.151-0.251-0.18-1.251-1.547-2.704-1.643 0.384 7e-3 0.693 0.888 1 1.293-0.391-0.372-1.475-1.454-2.28-1.652-0.552-0.138-3.112-0.652-3.628-0.302 0.814 0.687 1.635 1.428 2.472 2.079-1.218-0.796-2.839-1.964-3.163-2.076-0.988-0.343-2.476-0.173-3.847-0.131-0.584 0.016-1.783 0.465-2.524 0.738-0.308-0.019-0.593 0.122-0.994 0.254 0.074-0.396 1.459-1.165 1.712-1.261-0.016-0.427-0.778-1.146-1.112-1.399-1.572-1.203-2.672-0.902-4.024-0.091 1.245-1.334 2.653-1.009 3.391-0.644-0.282-1.412-1.32-3.663-2.634-4.369-1.225-0.501-2.373 0.246-2.96 0.664-0.475 0.336-0.671 1.135-0.857 1.88-0.61 2.894-0.103 6.624 0.042 7.253 0.744 3.268 0.455 6.162-0.08 8.152-0.016 1.761-0.587 3.224 2.621 5.35-2.282-1.064-2.871-2.771-2.964-3.329-0.376 1.116-0.507 2.265-0.357 3.669 0.417 3.857 0.373 3.959 2.821 4.922 1.738 0.684 2.235-0.507 2.852-1.816 1.142-1.546 1.305-3.092 1.815-4.286 0.257-0.612 0.818-1.091 1.206-1.515 0.574 1.05 1.52 1.249 2.352 2.071 0.943 0.839 1.357 1.147 2.303 0.82 0.481-0.215 2.711-0.449 4.043-0.831 0.33-0.096 0.654-0.205 0.971-0.32 0.517-0.087 1.029-0.167 1.514-0.225 1.252-0.154 3.568-1.203 3.728-2.772 0.125-1.226 0.34-2.839 2.079-2.784l-0.446-1.072c0.263 0.305 1.152 0.95 1.399 1.155 2.187 1.829 8.16 2.031 7.872-2.066-0.301-4.231-6.374-2.958-8.273-1.626m-20.17-1.938-0.188 0.433c-0.37 0.799-0.677 3.394-0.593 4.231 0.038 0.392 0.208 1.13 0.332 1.441 0.184-0.029-0.063-0.808-0.124-1.45-7e-3 -0.475 0.154-1.395 0.192-1.572-0.01 0.177-0.18 1.024-0.135 1.574 0.067 0.768 0.401 1.766 0.45 1.878 0.221 0.019-0.151-1.463-0.231-1.88 0.016-0.706 0.082-1.197 0.159-1.508-0.012 0.257-0.134 0.982-0.118 1.489 0.19 0.782 0.487 1.995 0.532 2.004 0.177-0.042-0.041-1.266-0.188-2.026-0.019-0.411-0.046-1.072 0.022-1.352 0.029 0.35-0.115 0.745 0.013 1.325 0.173 0.864 0.337 1.602 0.397 1.585 0.292-0.137-0.221-1.838-0.079-2.364 0.105-0.394 0.115-0.878 0.144-1.251 0.013 0.035-0.067 0.257 0.211 0.824-0.016 0.215 0.019 1.002 0.311 0.787 0.058-0.084-0.054-0.578 0-0.812-0.147-1.052-0.878-2.076 0.36-3.628v-0.017c0.571-0.728 1.207-0.831 1.941-1.109-0.254-0.264-0.69-0.642-1.178-0.983-0.731 0.668-1.039 1.008-1.8 1.829-0.173 0.186-0.314 0.369-0.43 0.552m1.955-2.566c-0.761-0.488-1.57-0.819-1.951-0.453-0.469 1.062 0.231 1.053 0.914 1.271z" fill="#f47216" fill-rule="evenodd"/></g><g transform="translate(47.53 109.06)"><path d="m0 0c0.798 0.026 1.001 0.308 1.376 0.741l0.035 0.116 0.083-7e-3c-0.102-0.387-0.109-0.737-0.378-1.026-0.212-0.225-0.581-0.41-1.277-0.545-0.757 0.525-2.082 1.235-3.661 1.331-1.819 0.116-3.861-0.514-3.814-2.037 7e-3 -0.295-0.115-0.924 0.074-1.469 0.433-1.249 2.014-1.364 3.404-1.303 0.885 0.039 1.677 0.042 2.172 0.254 1.161 0.493 1.867 1.787 3.247 1.876 0.024-0.304 0.077-0.496 0.079-0.725 4e-3 -0.382 1.871-0.924 1.864-1.476-0.012-1.046 0.533-2.457 0.565-2.524 0.699-1.466 3.641-1.675 3.727-1.727 0.726-0.442 6.189-1.453 6.262-1.532 0.056-0.058 1.588 0.846 2.789 1.934 0.696 0.628 1.222 1.411 1.434 1.86l0.85 1.377h6e-3l0.51 0.907c0.183 0.322 0.083 0.633 0.141 0.937 7e-3 0.039-0.015 0.071-0.01 0.109 7e-3 0.023 0.084 0.507 0.103 0.614 0.054 0.304-0.077 1.03-3e-3 1.25-0.013-0.028-0.09-0.834-0.125-1.026-0.052-0.289-0.404-0.462-0.514-0.228-3e-3 0.163 0.061 0.372-0.054 0.838-0.067 0.275 0.228 0.907 0.289 1.35 0.417 0.962 0.038 1.472-0.469 2.281v-3e-3c-0.058 0.07-0.119 0.135-0.179 0.192-0.19-0.106 0.109-0.452 0.202-0.61 0.035-0.163 0.356-0.606 0.43-0.907-0.023-0.478-0.084-0.88-0.154-1.31-0.026 0.276 0.093 0.623 0.051 1.378-0.151 0.455-0.546 1.064-0.693 1.296-0.231-0.174-9e-3 -0.389 0.039-0.488 0.092-0.189 0.308-0.806 0.321-0.988 2e-3 -0.081-0.026-0.588-0.029-0.922 0-0.173 0.038-0.388 0.029-0.547-0.055 0.246-0.09 0.512-0.161 0.75-3e-3 0.074 4e-3 0.362-3e-3 0.51 0.07 0.427-0.012 0.847-0.292 0.757 0-0.093-0.073-0.636-0.122-0.873 0.019-0.352 6e-3 -0.873 0.013-0.988 0.083-1.347 0.372-2.46-0.318-3.753-0.273-0.507-0.68-1.037-1.341-1.594-0.484-0.373-2.261-1.515-2.698-2.114-0.208-0.282-4.036 1.446-5.632 1.475-0.21 3e-3 -0.915 0.385-1.595 0.392-0.035 0-0.073 0.022-0.11 0.061 0.11 0.051 0.199 0.134 0.26 0.236 0.228-2e-3 0.456-0.016 0.684-0.038 0.029 0.017 0.042 0.042 0.116 0.113l-0.594 0.058c-0.517 2.642-1.38 3.445-2.342 4.536-0.131 0.266-0.5 0.587-0.696 0.846l4.424-2.123c1.444-0.783 2.874-1.671 4.302-2.461l-0.973-0.01c-0.154 0.405 0.222 0.067-0.224 0.507-0.187-0.362-0.33-0.577-0.856-0.638l-0.205 1.235c-0.165-0.192-0.075-0.032-0.199-0.295l-0.161-0.95c-0.42-0.15-0.619-0.407-1.107-0.57-0.375-0.081-0.796-0.152-1.158-0.257l1.268-0.164h-4e-3c1.742-0.423 3.006-1.011 4.53-1.693 0.43 0.275 0.606 0.631 1.049 0.991 0.445 0.369 0.783 0.5 1.232 0.847l-0.042 0.012 0.828 0.35c0.01 3e-3 0.096 0.311 0.188 0.625-0.185-0.202-0.351-0.349-0.5-0.43-0.666-0.356-1.103 0.376-2.068 1.553l-2.111 2.111c0.455-0.536 0.766-1.097 1.257-1.616 0.581-0.614 1.28-2.182 2.069-2.493l-0.295-0.158c-0.177 0.126-0.109 0.068-0.366 0.168-1.466 0.577-0.532 0.628-2.896 1.953-0.684 0.385-1.056 0.577-1.836 0.847-1.116 0.385-5.777 3.584-7.865 4.07-0.193 0.077-0.607 0.091-0.79 4e-3l0.064 0.822c0.649 0.683 0.578 1.346 1.174 1.587 0.556 0.208 5.076-0.391 6.067-0.465 2.855-0.215 3.33-0.631 5.232-1.71-0.199 0.399-0.979 0.941-1.308 1.222 0.493 0.016 1.28-0.384 1.799-0.529 1.235-0.343 2.165 0.594 2.737 0.79v0.022l0.308 0.151c-0.27 0.086-0.553 0.157-0.838 0.243-0.292-0.355-1.056-1.225-1.983-0.712-0.064 0.536 1.111 1.29 1.745 2.053 0.228 0.27 0.427 0.488 0.604 0.665-0.485-0.276-0.885-0.574-1.223-0.915-0.722-0.458-1.402-1.045-1.638-1.568-0.45 0.138-2.037 0.577-2.644 0.629-1.357 0.112-2.81 0.339-3.786 0.381-0.792-0.196-3.943 0.109-4.719 0.18l0.08 0.064c0.516 0.157-0.028-0.077 0.292 0.15 0.25 0.177 1.252 1.544 2.702 1.64-0.381-3e-3 -0.691-0.885-0.998-1.293 0.388 0.372 1.475 1.454 2.281 1.655 0.551 0.135 3.111 0.652 3.628 0.302-0.814-0.69-1.639-1.428-2.474-2.082 1.219 0.795 2.84 1.967 3.164 2.075 0.984 0.343 2.476 0.174 3.847 0.132 0.583-0.016 1.783-0.465 2.521-0.738 0.311 0.019 0.596-0.121 0.997-0.254-0.074 0.395-1.459 1.165-1.713 1.261 0.016 0.427 0.78 1.145 1.113 1.402 1.572 1.203 2.673 0.899 4.024 0.088-1.246 1.337-2.653 1.012-3.391 0.647 0.281 1.412 1.322 3.663 2.633 4.366 1.226 0.504 2.375-0.247 2.961-0.664 0.475-0.337 0.671-1.132 0.857-1.877 0.609-2.896 0.102-6.627-0.042-7.256-0.744-3.269-0.455-6.163 0.08-8.152 0.016-1.758 0.587-3.223-2.621-5.351 2.281 1.065 2.871 2.775 2.965 3.331 0.375-1.117 0.506-2.263 0.355-3.667-0.416-3.859-0.372-3.959-2.822-4.922-1.739-0.683-2.233 0.504-2.849 1.813-1.143 1.549-1.306 3.096-1.816 4.289-0.259 0.609-0.818 1.088-1.209 1.515-0.571-1.053-1.517-1.249-2.348-2.073-0.944-0.841-1.357-1.145-2.308-0.821-0.477 0.215-2.707 0.453-4.038 0.83-0.33 0.1-0.655 0.205-0.972 0.321-0.517 0.09-1.029 0.167-1.514 0.228-1.252 0.151-3.567 1.2-3.728 2.769-0.125 1.229-0.341 2.842-2.079 2.785l0.446 1.07c-0.262-0.304-1.152-0.949-1.399-1.154-2.187-1.829-8.164-2.028-7.872 2.069 0.301 4.228 6.374 2.955 8.274 1.626m20.168 1.938 0.189-0.433c0.369-0.802 0.677-3.394 0.594-4.235-0.038-0.391-0.209-1.129-0.333-1.44-0.184 0.032 0.063 0.809 0.124 1.451 7e-3 0.474-0.154 1.397-0.192 1.571 0.01-0.176 0.18-1.02 0.131-1.571-0.063-0.771-0.397-1.766-0.446-1.881-0.221-0.016 0.152 1.463 0.232 1.883-0.017 0.706-0.084 1.194-0.16 1.505 0.012-0.257 0.134-0.983 0.118-1.486-0.19-0.785-0.488-1.999-0.533-2.008-0.176 0.042 0.042 1.268 0.189 2.027 0.017 0.411 0.046 1.075-0.021 1.351-0.03-0.349 0.115-0.744-0.014-1.321-0.173-0.864-0.336-1.604-0.397-1.585-0.292 0.135 0.221 1.835 0.08 2.361-0.106 0.397-0.115 0.879-0.145 1.254-0.012-0.039 0.068-0.257-0.211-0.824 0.016-0.218-0.019-1.005-0.311-0.79-0.058 0.087 0.054 0.581 0 0.815 0.147 1.049 0.879 2.073-0.359 3.628v0.017c-0.572 0.725-1.207 0.827-1.941 1.107 0.252 0.263 0.689 0.641 1.177 0.981 0.731-0.668 1.039-1.007 1.799-1.825 0.174-0.186 0.315-0.369 0.43-0.552m-1.953 2.563c0.757 0.488 1.569 0.822 1.95 0.453 0.469-1.062-0.231-1.053-0.915-1.268z" fill="#f47216" fill-rule="evenodd"/></g><g transform="translate(122.85 78.87)"><path d="m0 0c-0.049-0.036-0.065-0.042-0.119-0.055-0.769-0.352-1.549-0.677-2.341-0.969-0.046-0.032-0.065-0.041-0.139-0.048-0.869-0.318-1.741-0.594-2.614-0.827-0.068-0.029-0.052-0.019-0.073-0.023-2.109-0.568-4.261-0.924-6.442-1.064l-0.01-4e-3c-0.722-0.045-1.438-0.068-2.146-0.068l-0.022-3e-3c-1.903 3e-3 -3.809 0.164-5.679 0.488l-0.036 3e-3c-5.723 0.998-11.067 3.485-15.526 7.209l-0.019 0.016c-0.755 0.631-1.483 1.296-2.179 1.992-3.525 3.528-6.219 7.809-7.863 12.511l-9e-3 0.032c-1.219 3.5-1.832 7.167-1.832 10.86v0.022c0 1.98 0.177 3.965 0.526 5.912l3e-3 0.016c0.844 4.674 2.688 9.101 5.402 12.996l0.017 0.026c1.119 1.6 2.377 3.105 3.76 4.488 2.434 2.434 5.235 4.482 8.299 6.056l9e-3 3e-3c4.684 2.41 9.839 3.645 15.091 3.645h0.022c1.871 0 3.741-0.154 5.576-0.465l0.023-4e-3c0.298-0.051 0.599-0.105 0.895-0.166 6.425-1.277 12.315-4.44 16.944-9.072 3.584-3.581 6.307-7.944 7.943-12.74l7e-3 -0.023c1.167-3.434 1.754-7.024 1.754-10.637l4e-3 -0.026c-4e-3 -1.645-0.123-3.301-0.366-4.934l-3e-3 -0.019c-1.053-7.009-4.328-13.473-9.339-18.481-1.058-1.058-2.178-2.034-3.352-2.922v-4e-3c-0.064-0.064-0.074-0.058-0.07-0.054-1.9-1.441-3.937-2.666-6.096-3.667m14.949 40.9c0.472 0.043 0.944 0.086 1.416 0.124-1.605 4.436-4.177 8.472-7.517 11.815-0.549 0.549-1.116 1.075-1.707 1.582-0.026 2e-3 -0.048 2e-3 -0.073 2e-3 3.637-3.807 6.287-8.519 7.881-13.523m1.601-15.643c0.472 0.112 0.943 0.224 1.415 0.336 0.208 1.486 0.311 2.99 0.315 4.504v-6e-3c-4e-3 3.404-0.537 6.773-1.595 10.006-0.485-0.038-0.969-0.077-1.45-0.122 1.382-4.758 1.842-9.791 1.315-14.718m-0.122-1.008c-0.051-0.391-0.109-0.783-0.176-1.174-0.773-4.613-2.423-9.005-4.905-12.947 3.327 4.202 5.55 9.161 6.46 14.455-0.458-0.109-0.917-0.221-1.379-0.334m-7.927-16.518c-1.167-0.289-2.328-0.588-3.49-0.892-0.828-1.703-1.839-3.307-3.042-4.761 1.245 0.706 2.442 1.495 3.571 2.355 1.049 1.027 2.04 2.13 2.961 3.298m0.899 1.2c3.06 4.257 5.049 9.134 5.918 14.301 0.042 0.257 0.084 0.517 0.119 0.776-2.435-0.599-4.863-1.218-7.289-1.867 0.013-2.73-0.218-5.473-0.764-8.151-0.42-2.066-1.029-4.1-1.864-6.037 1.291 0.334 2.587 0.661 3.88 0.978m6.171 16.085c0.579 4.973 0.122 10.066-1.299 14.866-2.023-0.199-4.045-0.449-6.059-0.75-0.983-0.149-1.96-0.306-2.936-0.479 0.305-0.895 0.591-1.796 0.85-2.707 1.184-4.158 1.896-8.502 2.009-12.826 2.469 0.658 4.95 1.289 7.435 1.896m-10.614 14.545c1.036 0.183 2.076 0.353 3.118 0.507 1.963 0.295 3.933 0.539 5.909 0.738-1.595 4.908-4.232 9.522-7.843 13.217-0.142 0.145-0.283 0.285-0.427 0.423-1.386 4e-3 -2.775-0.063-4.158-0.18h-0.01c-1.52-0.124-3.038-0.307-4.545-0.535 3.474-4.141 6.12-9.105 7.956-14.17m-0.241 15.822c-3.471 3.106-7.597 5.281-12.187 6.237-0.315 0.064-0.629 0.125-0.947 0.179-1.322-0.119-2.637-0.279-3.95-0.484 3.065-1.489 5.772-3.654 8.089-6.137 0.186-0.195 0.369-0.398 0.548-0.601 1.729 0.273 3.465 0.492 5.21 0.637 1.074 0.086 2.156 0.147 3.237 0.169m-5.23-54.578c1.752 1.652 3.177 3.586 4.296 5.71-2.165-0.58-4.324-1.187-6.47-1.838 0.156-1.537 0.298-3.073 0.423-4.613 0.59 0.23 1.174 0.478 1.751 0.741m7.716 21.083c-3.946-1.069-7.875-2.211-11.771-3.454 0.748-4.242 1.329-8.516 1.781-12.801 2.365 0.715 4.745 1.379 7.131 2.012 0.969 2.078 1.66 4.289 2.114 6.534 0.518 2.531 0.742 5.127 0.745 7.709m-0.01 0.979c-0.089 4.321-0.792 8.667-1.976 12.818-0.269 0.941-0.564 1.875-0.885 2.801-1.626-0.298-3.254-0.628-4.866-0.991-2.728-0.61-5.431-1.315-8.11-2.107 1.665-5.233 2.925-10.61 3.91-16.012 3.946 1.258 7.927 2.413 11.927 3.491m-3.182 16.524c-1.858 5.081-4.559 10.067-8.107 14.167-0.372-0.061-0.741-0.126-1.11-0.189-3.407-0.61-6.785-1.431-10.102-2.422 2.503-4.376 4.488-9.063 6.102-13.833 0.09-0.276 0.183-0.549 0.273-0.825 2.704 0.802 5.437 1.51 8.189 2.13 1.579 0.356 3.163 0.676 4.755 0.972m-8.854 15.001c-0.042 0.049-0.083 0.093-0.129 0.141-2.55 2.73-5.588 5.072-9.065 6.493-2.381-0.449-4.733-1.049-7.036-1.803 1.974-2.313 3.721-4.815 5.274-7.433 3.424 1.026 6.91 1.88 10.427 2.513 0.176 0.031 0.353 0.061 0.529 0.089m-10.923 7.25c-0.556 0.171-1.117 0.314-1.688 0.433-1.778-0.196-3.539-0.539-5.258-1.026 0.324-0.347 0.648-0.693 0.962-1.05 1.964 0.658 3.959 1.203 5.984 1.643m1.145 0.619c0.227-0.079 0.455-0.167 0.68-0.254 0.455 0.084 0.911 0.161 1.37 0.235-0.453 0.017-0.908 0.026-1.361 0.026h7e-3c-0.234 0-0.465 0-0.696-7e-3m11.433-62.54c-0.125 1.559-0.266 3.114-0.424 4.67-1.68-0.523-3.351-1.072-5.011-1.665-0.509-0.185-1.023-0.372-1.53-0.564 1.437-1.247 3.051-2.373 4.797-3.121 0.73 0.198 1.453 0.426 2.168 0.68m-0.523 5.63c-0.449 4.279-1.023 8.549-1.768 12.79-4.52-1.466-9.014-3.076-13.393-4.925 2.156-3.691 4.799-7.419 7.927-10.345 0.664 0.256 1.334 0.504 2.005 0.744 1.73 0.622 3.475 1.194 5.229 1.736m-15.639 8.694c4.481 1.895 9.078 3.541 13.705 5.036-0.981 5.412-2.24 10.796-3.908 16.034-5.546-1.681-10.978-3.741-16.264-6.121 1.649-5.148 3.808-10.24 6.467-14.949m9.509 21.971c-0.086 0.266-0.174 0.53-0.263 0.792-1.617 4.784-3.609 9.481-6.134 13.859-4.436-1.369-8.79-3.047-12.992-5.02 0.15-1.883 0.391-3.757 0.705-5.618 0.578-3.419 1.402-6.811 2.422-10.124 5.287 2.374 10.715 4.43 16.262 6.111m-6.892 15.489c-1.558 2.607-3.317 5.097-5.308 7.394-1.078-0.375-2.146-0.786-3.202-1.225-1.268-0.533-2.515-1.11-3.74-1.733-0.289-1.941-0.418-3.91-0.42-5.87-7e-3 -1.14 0.028-2.278 0.099-3.413 4.074 1.895 8.283 3.515 12.571 4.847m-5.989 8.157c-0.33 0.367-0.666 0.726-1.01 1.079-1.607-0.517-3.176-1.158-4.683-1.919-0.142-0.571-0.268-1.145-0.373-1.723 1.046 0.514 2.104 0.998 3.179 1.451 0.953 0.397 1.915 0.769 2.887 1.112m15.928-60.984c-1.575 0.827-3.034 1.915-4.35 3.099-1.819-0.719-3.664-1.521-5.379-2.476 1.556-0.579 3.159-1.03 4.793-1.338 1.661 0.109 3.31 0.35 4.936 0.715m-5.12 3.811c-3.079 2.971-5.688 6.672-7.83 10.356-1.643-0.706-3.266-1.451-4.87-2.24-1.605-0.792-3.189-1.633-4.738-2.534 2.521-2.739 5.457-5.098 8.722-6.891 0.968-0.532 1.96-1.01 2.977-1.434 1.806 1.069 3.786 1.961 5.739 2.743m-8.306 11.183c-2.652 4.706-4.808 9.788-6.464 14.927-3.811-1.745-7.542-3.657-11.195-5.717 0.5-1.565 1.093-3.102 1.78-4.6 1.569-3.429 3.619-6.647 6.101-9.492 1.621 0.952 3.283 1.835 4.966 2.665 1.586 0.78 3.193 1.518 4.812 2.217m-17.942 10.141c3.651 2.05 7.383 3.955 11.19 5.698-1.05 3.39-1.9 6.861-2.489 10.361-0.299 1.771-0.53 3.551-0.684 5.338-3.231-1.558-6.375-3.303-9.39-5.242-0.641-5.417-0.16-10.922 1.373-16.155m7.94 22.408c-0.09 1.283-0.134 2.567-0.131 3.85 6e-3 1.78 0.109 3.567 0.34 5.335-2.201-1.175-4.321-2.49-6.355-3.927-1.259-2.83-2.189-5.79-2.759-8.835-0.091-0.481-0.173-0.966-0.245-1.45 2.946 1.854 6.01 3.526 9.15 5.027m0.378 10.346c0.094 0.558 0.199 1.114 0.318 1.665-1.902-1.058-3.698-2.31-5.35-3.732-0.238-0.435-0.469-0.874-0.691-1.32 1.845 1.231 3.754 2.364 5.723 3.387m14.408-58.642c-0.718 0.227-1.431 0.484-2.133 0.762-0.26-0.159-0.514-0.323-0.764-0.496 0.96-0.132 1.925-0.222 2.897-0.266m-3.192 1.208c-0.838 0.369-1.655 0.777-2.457 1.217-3.417 1.873-6.477 4.347-9.098 7.227-1.335-0.805-2.64-1.661-3.898-2.588 4.186-3.37 9.14-5.637 14.433-6.59 0.33 0.26 0.67 0.503 1.02 0.734m-12.194 9.166c-2.492 2.88-4.555 6.131-6.14 9.591-0.673 1.471-1.258 2.978-1.758 4.518-1.845-1.056-3.67-2.147-5.473-3.273 1.607-4.439 4.18-8.478 7.519-11.818 0.594-0.59 1.207-1.161 1.845-1.704 1.29 0.96 2.631 1.848 4.007 2.686m-13.689 11.758c1.813 1.125 3.648 2.219 5.503 3.275-1.541 5.161-2.083 10.605-1.557 15.966-1.729-1.149-3.419-2.364-5.055-3.647-0.321-1.839-0.482-3.713-0.482-5.596v0.011c0-3.407 0.533-6.776 1.591-10.009m4.088 20.463c0.099 0.77 0.221 1.537 0.365 2.3 0.488 2.593 1.229 5.133 2.207 7.582-0.853-0.639-1.69-1.3-2.512-1.977-2.383-3.432-4.074-7.289-4.975-11.36 1.591 1.214 3.233 2.364 4.915 3.455m3.295 11.581c0.077 0.173 0.157 0.343 0.234 0.514-0.341-0.346-0.671-0.699-0.995-1.063 0.254 0.187 0.507 0.369 0.761 0.549" fill="#279684" fill-rule="evenodd"/></g><g transform="translate(102.23 137.81)"><path d="m0 0c-0.908-1.036-1.861-1.591-0.283-2.496 1.544-0.889-0.5-1.95-0.185-2.615 0.975-2.056-0.497-3.051-2.364-3.933-0.03-0.015-2.169-3.497-2.118-3.692 0.806-3.057-2.74-4.674-5.05-2.473-0.862 0.82-1.462 2.476-2.114 3.522-0.545 0.876-2.875 1.023-3.455-0.087-2.181-0.494-1.889 1.44-2.039 0.786-0.145-0.619-1.621-2.505-1.284-3.217 0.892-1.884 6.932 1.257 5.855-2.487-0.787-2.717-0.719-3.696-3.712-1.35-2.669 2.092-2.256-0.905-1.405-2.701 0.343-0.726-1.453-0.934-1.733-1.065-1.126-0.537-1.571-3.128-0.241-3.703 0.187-0.08 1.743 0.33 2.015 0.386 0.578 0.112 3.257-1.983 2.021 0.628-0.24 0.507 0.819 1.726-0.773 2.49-0.461 0.22-0.949 1.873-1.103 2.329-0.415 1.218 1.21 0.369 1.579 0.015 0.57-0.545 3.701-0.846 3.717-0.034 0.013 0.705 0.61 0.496 0.992 0.223 0.542-0.384 1.075-1.622 1.895-1.343 2.425 0.824 1.479-0.542 3.125-1.617 2.14-1.395 0.558-2.467 0.61-2.403-0.225 1.476-4.231-0.491-3.039 1.008 3.455 4.346 0.158 0.769-1.28 0.127-1.478-1.064 0.273-1.867 1.502-1.285 1.107 0.523 0.953-1.056-0.112-1.563-0.732-0.346-0.308-0.315-0.61-0.776-0.654-1.011-1.17 0.48-1.129-1.393 0.019-0.885-0.224-1.29-1.071-1.687-0.299-0.145 0.273-1.148 0.266-1.505-0.016-0.817-0.892-2.653-0.834-2.964 0.237-1.25 1.36-2.55 2.434-3.167 0.366-0.211 2.362 0.575 2.831 0.726 1.273 0.414 2.896-1.473 1.584-1.203-0.792-0.376-4.943-2.252-5.037-1.043-0.128 1.681-2.053-0.664-2.015 1.248 0.01 0.459 0.694 0.257 0.43 0.815-0.711 1.505-2.762 1.007-3.656-0.263-0.565-0.802-0.062-4.241 1.381-3.952 0.672 0.911 0.473 1.611 1.624 2.156 0.645 0.304 1.027-1.143 1.281-1.678 0.292-0.613 1.029 0.147 1.514-0.873 1.219-2.579 7.169 5.113 9.037 2.037 0.237-0.391 6.043-0.843 7.031-1.193 1.8 0.471 4.604 1.01 5.569-1.033 1.175-2.477-1.408-9.114-3.063-10.785-0.359-0.36-1.754-3.761-1.761-4.097-0.013-0.635 1.331-3.405 0.863-3.625-4.248-2.012-5.961 9.951-10.516 10.186-1.508 0.073-5.238 3.974-4.639 5.668 0.279 0.786-4.238 1.55-5.403 1.966-0.25 0.187-3.635 0.112-4.317 0.442-6.513 3.174-8.829 12.326-8.566 16.234 0.068 0.991 0.587 3.788 0.914 5.328 0.17 0.789 0.062 1.595 0.619 0.157 0.983-2.874 5.451 4.94 1.149 5.823 0.019 0.423 1.681 3.041 2.046 3.58 1.367 2.024 4.634 3.715 6.699 5.088 2.846 1.89 5.592 3.179 8.762 4.677 0.65 0.88 2.017 0.92 3.011 0.857 0.289-0.019 3.456 1.835 2.551 0.799m-22.803-15.611c7e-3 -0.686-0.067-1.437-0.208-2.049-0.08-0.36-0.645-0.591-0.95-0.735-0.439-0.206-0.484-1.553-0.288-1.967 0.285-0.603 0.965-0.654 1.404-0.308 0.521 0.411 0.948 1.425 1.275 2.027 0.365 0.668-0.488 2.794-1.233 3.032m32.434 3.597c-0.019-0.347 0.278-1.502 0.013-1.665-0.17-0.106-0.385-0.183-0.569-0.269-0.573-0.273-0.538-0.322-0.802 0.23-0.289 0.609-0.42 1.011 0.033 1.485 0.124 0.132 0.558 0.334 0.731 0.347 0.141 0.01 0.273 6e-3 0.414-9e-3 0.189-0.02 0.427-0.245 0.18-0.119m2.265-1.172c-0.584-0.276-1.255-0.619-1.614 0.135-0.42 0.889 0.279 0.713 0.558 1.325 0.109 0.241-0.434 0.135-0.542 0.109-0.674-0.163-0.434-0.346-0.905 0.103-0.231 0.222-1.229 1.495-1.136 1.623 0.549 0.764 0.953 0.257 1.448-0.128 0.535-0.42 1.045-0.151 1.507-0.514 0.292-0.227 1.614-0.85 1.607-1.154-0.012-0.649-0.507-1.114-0.923-1.499m25.214-16.204c0.206-0.432 0.572-1.003 0.562-1.446-0.019-1-0.336-1.883-0.356-2.862-0.02-0.811-1.431-0.5-1.267 0.177 0.131 0.536 0.273 0.975-0.016 1.582-0.209 0.446-0.325 0.565-0.157 1.026 0.185 0.526 0.334 1.421 0.776 1.633 0.334 0.157 0.478 0.196 0.654-0.18 0.103-0.218-0.365 0.061-0.196 0.07 0.107 7e-3 -0.031-0.079-0.099-0.047-0.028 0.016 0.029-0.122 0.099 0.047m-12.562 28.168c-1.963-0.93-5.223-0.405-7.317-0.056-7.196 1.21-6.381-8.853-3.177-7.335 0.956 0.451 3.359-0.803 2.29 1.453-0.5 1.061-1.456 2.899-0.086 3.548 0.051 0.025 0.719-2.083 1.142-2.763 1.63-2.614-0.75-1.946-2.714-2.878-1.19-0.561-0.66-2.842-1.687-3.329-3.751-1.774 2.027-2.994 0.096-3.91-1.636-0.774-3.291-0.969-1.722-2.651l1.241-1.327 2.669 1.423c-0.138 1.553 0.491 2.021 0.715 3.359 0.164 0.995 1.665 1.829 2.541 0.796 0.157-0.186 1.297 0.115 1.568-0.147 0.123-0.123 0.425-0.687 0.726-0.831 0.234-0.113 0.561 0.025 0.176 0.843-0.26 0.549-1.052 0.873-1.806 1.142-1.248 0.446 0.151 0.713 0.52 0.453 1.075-0.757 2.133-1.431 2.984-2.506 0.247-0.315 1.225 0.337 0.329 0.85-0.797 0.459-0.101 2.282 0.706 0.577 0.726-1.532 1.053-0.638 2.417-0.362 1.074 0.215 0.763-1.556-0.161-1.992-0.769-0.365-2.149 0.549-2.682-0.538-0.626-1.28-1.62-1.008-2.961-0.463-2.474 1.004-2.887 0.337-4.808-1.3l-2.268-1.93c-0.652-0.555 0.015-1.89-0.222-2.551-1.537-3.006-0.385-7.862 3.186-9.14 4.16-1.485 7.493 4.588 9.161 1.159 0.452-0.93 2.134-2.4 2.327-3.417l0.385-2.049c0.118-0.645 1.423-1.634 1.565-1.932 0.564-1.193 1.934-2.06 2.399-2.823 0.045-0.077 0.848 0.389 0.986 1.366 1.17 1.034 2.174 5.326 2.126 6.962l-0.087 2.855c-0.032 1.021-0.796 1.483-1.032 2.166-0.434 1.222-0.299 2.454 0.796 3.842 0.692 0.876 0.121 2.734-0.485 2.897-2.268-0.115-3.859 1.987-4.514 2.403-0.966 0.619-1.723 2.189-0.616 1.136 1.79-1.706 2.91-2.689 3.712-2.724 1.376-0.064 2.06 2.252 1.562 3.487-0.243 0.603-1.226 0.469-1.661 0.603-2.615 0.803-1.81 2.75 0.977 0.565 0.71-0.555 1.474 1.37 2.458-0.712 0.174-0.362 0.6-0.491 0.805-0.923 0.068-0.142 0.812-0.873 0.706-0.973 0.067 1.893-2.322 6.615-5.63 10.679-3.163 3.892-6.814 6.269-7.635 6.998m2.47-10.388c-0.298-0.357-0.819-0.458-1.196-0.488-0.732-0.054-0.646-0.304-1.233-0.581-0.602-0.285-0.962 0.158-1.142 0.684-0.308 0.904 0.892 1.446 1.649 1.43 0.542-9e-3 1.633-0.692 1.922-1.045m3.719-0.526c-0.273-0.53-0.319-0.863-0.918-0.392-0.257 0.203-0.28 0.796-0.453 1.091-0.186 0.308-0.622 0.318-0.796 0.683-0.239 0.511-0.612 0.957-0.281 1.373 0.218 0.28 0.57 0.35 0.933 0.222 0.301-0.11 0.507-1.283 0.667-1.624 0.129-0.273 0.556-0.478 0.645-0.673 0.054-0.112 0.299-0.751 0.203-0.68m-18.332 13.553c-0.471-0.224-0.712-0.917-1.148-0.503-0.349 0.33-0.844 0.622-0.86-0.08-0.022-1.066-1.652-0.206-2.245-0.251-0.434-0.032-1.528 0.543-0.79 0.893l1.932 0.913c0.843 0.402 1.655 0.091 2.434 0.46 0.552 0.262 0.976-1.525 0.677-1.432m-9.233-9.222c-0.371-4e-3 -3.086-0.783-2.97-1.303 0.321-1.457 1.951-0.687 2.888-0.372 0.523 0.176 0.673 0.423 0.897 0.815 0.119 0.205 0.761 0.661 0.122 0.648-0.061 0-0.9 0.193-0.937 0.212" fill="#279684" fill-rule="evenodd"/></g><g transform="translate(108.94 186.15)"><path d="m0 0c21.317 0 40.62-8.643 54.591-22.614 13.971-13.97 22.614-33.274 22.614-54.591s-8.643-40.62-22.614-54.591-33.274-22.613-54.591-22.613-40.62 8.642-54.591 22.613-22.613 33.274-22.613 54.591 8.642 40.621 22.613 54.591c13.971 13.971 33.274 22.614 54.591 22.614m51.143-26.063c-13.086 13.09-31.169 21.186-51.143 21.186-19.973 0-38.053-8.096-51.143-21.186-13.088-13.084-21.182-31.168-21.182-51.142 0-19.973 8.094-38.053 21.182-51.143 13.09-13.088 31.17-21.185 51.143-21.185 19.974 0 38.057 8.097 51.143 21.185 13.088 13.09 21.185 31.17 21.185 51.143 0 19.974-8.097 38.058-21.185 51.142" fill="#279684"/></g><g transform="translate(182.3 153.04)"><path d="m0 0c-3.606 5.989-7.926 11.504-12.845 16.418-6.307 6.307-13.595 11.636-21.616 15.735l0.196-0.154c4.98-3.904 8.678-8.077 11.408-13.781 2.714-2.098 3.77-3.199 6.191-5.621 10.004-9.998 17.372-22.632 20.987-36.769 0.514 4.028 0.241 8.522-0.728 13.126-0.773 3.676-1.986 7.418-3.593 11.046" fill="#f47216"/></g><g transform="translate(193.88 98.442)"><path d="m0 0c0.421 3.442 0.642 6.949 0.642 10.506 0 12.319-2.605 24.025-7.292 34.608 0.096-0.407 0.189-0.817 0.273-1.222 1.212-5.755 1.373-11.366 0.314-16.201l-0.372-1.145c1.226-5.575 1.672-10.095 1.672-16.04 0-12.055-2.664-23.492-7.43-33.748 2.691 2.656 5.113 6.019 7.147 9.822 2.178 4.074 3.907 8.653 5.046 13.42" fill="#f47216"/></g><g transform="translate(169.72 48.714)"><path d="m0 0c10.397 10.49 18.1 23.662 21.976 38.384-0.447-0.975-0.921-1.925-1.416-2.853-2.771-5.183-6.255-9.588-10.172-12.609l-0.674-1.068c-3.788-7.229-8.088-12.59-13.807-18.309-6.365-6.365-13.795-11.665-21.998-15.607 3.487 0.388 7.168 1.366 10.834 2.838 5.313 2.131 10.595 5.3 15.257 9.224" fill="#279684"/></g><g transform="translate(117.15 23.861)"><path d="m0 0c16.104 1.427 30.367 7.167 42.664 16.274-1.567-0.811-3.151-1.537-4.739-2.175-5.322-2.137-10.686-3.265-15.536-3.134-9.428-3.897-19.762-6.048-30.602-6.048-6.843 0-13.487 0.857-19.829 2.471 2.843-1.838 6.157-3.371 9.759-4.548 5.473-1.794 11.594-2.763 17.721-2.744z" fill="#f47216"/></g><g transform="translate(60.47 38.567)"><path d="m0 0c12.839-9.047 27.516-14.27 44.211-15.09-2.172 0.435-4.29 0.994-6.321 1.658-5.337 1.745-10.086 4.257-13.688 7.385-12.38 3.926-23.457 10.775-32.421 19.739-3.24 3.24-6.204 6.759-8.853 10.512 0.99-3.355 2.585-6.791 4.664-10.133 3.871-6.23 7.327-9.14 12.408-14.071" fill="#f47216"/></g><g transform="translate(26.148 87.23)"><path d="m0 0c3.898-14.905 11.716-28.224 22.283-38.792 0.599-0.597 1.206-1.187 1.822-1.768-1.312 1.659-2.511 3.366-3.59 5.099-3.038 4.885-5.089 9.992-5.79 14.807-7.671 12.294-12.102 26.816-12.102 42.372 0 2.654 0.13 5.271 0.383 7.856-1.61-3.406-2.733-7.381-3.343-11.638-0.815-5.701-0.895-11.197 0.192-17.228z" fill="#279684"/></g><g transform="translate(33.215 148.84)"><path d="m0 0c-6.288-11.912-9.848-25.488-9.848-39.896 0-2.694 0.125-5.357 0.369-7.987 0.089 1.504 0.241 2.986 0.445 4.436 0.831 5.819 2.599 11.152 5.248 15.331l0.187-0.118c2.544 17.475 10.724 33.116 22.636 45.027 0.43 0.427 0.863 0.85 1.299 1.268-3.753-1.569-7.514-4.055-11.02-7.199-3.432-3.076-6.618-6.779-9.316-10.862" fill="#f47216"/></g><g transform="translate(79.058 189.16)"><path d="m0 0c-11.609-4.328-22.029-11.103-30.627-19.701-3.102-3.102-5.966-6.442-8.565-9.99 0.517 0.504 1.04 0.992 1.569 1.464 3.509 3.147 10.131 7.859 14.875 8.51 1.338 1.197 1.903 1.614 3.318 2.717 12.405 9.695 27.742 15.813 44.456 16.815-4.022 1.353-8.726 1.93-13.685 1.766-3.702-0.121-7.542-0.654-11.341-1.581" fill="#f47216"/></g><g transform="translate(108.94 194.52)"><path d="m0 0c-6.596 0-13.022-0.747-19.187-2.158l0.591 0.022c5.616 0.183 12.399-0.41 17.351-3.282 0.21 0.035 0.267 0.016 1.245 0.016 17.744 0 34.14-5.768 47.421-15.524-2.21 3.622-5.444 7.087-9.344 10.148-2.696 2.114-5.702 4.032-8.909 5.677-9.105 3.302-18.925 5.101-29.168 5.101" fill="#279684"/></g><g transform="translate(66.155 153.56)"><path d="m0 0c0.572-0.572 0.928-0.519 1.514-0.488 0.636 0.273 1.91 1.315 3.135 1.899 1.707 0.812 2.688 0.311 3.541-0.246 0.425-0.277 0.815-0.565 1.245-0.719 1.649-0.581 5.169-3.067 6.407-4.376 0.299-0.317 0.504-0.719 0.334-1.418l-0.341-5.329 0.023-6e-3c-0.18-0.513-0.357-1.186-0.458-1.746-0.347-1.873-1.39-4.878-3.748-5.513l0.474 3e-3c2.613 0.644 3.151 3.342 3.574 5.408 0.027 0.312 0.123 1.165 0.248 1.819l0.06-0.016c2.182 1.812 5.877 3.863 8.689 3.536 0.834-0.096 1.998-1.832 2.353-2.563 0.139-0.325-2.306-2.663-2.649-3.006-3.102-3.102-5.062-3.389-8.02-6.311-0.821-0.811-1.749-2.708-3.061-4.35-1.62-2.027-3.378-3.978-4.719-5.419-0.991-1.062-3.259-0.355-4.058 1.014-0.969 1.656 2.458 7.857 3.625 9.018-0.179 0.25-0.013 0.148-0.266 0.463-2.118-0.338-4.042-0.601-6.054-0.896-0.824-0.118-1.668 0.574-1.931 1.405-0.291 0.925-2.547 3.962-3.409 6.115-0.483 1.19-1.605 3.217-0.527 4.455 0.84 0.969 2.913 3.044 1.668 4.29l1.12 0.433c-0.414-0.023-1.514 0.176-1.845 0.212-2.899 0.314-7.186 4.588-3.882 7.286 3.413 2.787 6.65-2.606 6.958-4.954m6.433-16.55c-2.609 2.983-4.174 3.733-7.253 6.092 0.628-1.271 2.472-3.41 3.339-6.122l3.183-0.227 2e-3 -9e-3c0.697-0.18 1.551-0.171 2.304-0.142 2.053 0.074 4.739 0.173 5.858 2.753l0.07 0.472c-0.773-2.49-3.987-2.968-5.985-2.91-0.473-0.019-1.034 0.061-1.518 0.093m6.942 11.051c-1.649 0.617-3.56 2.249-5.601 3.121 2.142-4.079 2.749-4.279 6.835-7.374z" fill="#279684" fill-rule="evenodd"/></g><g transform="translate(65.052 65.973)"><path d="m0 0c0.575 0.575 0.521 0.928 0.491 1.514-0.276 0.636-1.315 1.913-1.899 3.139-0.814 1.706-0.311 2.687 0.247 3.541 0.276 0.42 0.565 0.814 0.715 1.244 0.581 1.65 3.067 5.168 4.38 6.404 0.313 0.301 0.715 0.504 1.418 0.336l5.328-0.339 7e-3 0.022c0.513-0.18 1.184-0.356 1.742-0.459 1.873-0.347 4.878-1.389 5.515-3.746v0.474c-0.646 2.609-3.344 3.15-5.413 3.57-0.308 0.03-1.164 0.123-1.819 0.25l0.016 0.062c-1.812 2.182-3.862 5.877-3.535 8.687 0.096 0.834 1.832 1.998 2.564 2.355 0.327 0.138 2.662-2.307 3.008-2.653 3.1-3.1 3.385-5.06 6.31-8.017 0.808-0.822 2.705-1.749 4.351-3.06 2.024-1.621 3.974-3.379 5.415-4.723 1.062-0.988 0.355-3.256-1.014-4.058-1.652-0.966-7.856 2.46-9.018 3.628-0.247-0.182-0.148-0.016-0.458-0.266 0.333-2.118 0.597-4.046 0.892-6.053 0.121-0.826-0.572-1.669-1.406-1.932-0.923-0.291-3.958-2.55-6.111-3.414-1.193-0.477-3.221-1.6-4.456-0.525-0.972 0.843-3.047 2.916-4.292 1.671l-0.431 1.12c0.02-0.414-0.176-1.514-0.214-1.845-0.315-2.9-4.587-7.186-7.285-3.881-2.789 3.413 2.607 6.646 4.952 6.954m16.55 6.436c-2.979-2.612-3.733-4.174-6.092-7.253 1.271 0.628 3.412 2.473 6.122 3.339l0.231 3.179 7e-3 3e-3c0.182 0.696 0.169 1.549 0.14 2.306-0.074 2.055-0.17 4.739-2.752 5.856l-0.469 0.073c2.49-0.776 2.965-3.988 2.91-5.986 0.017-0.471-0.064-1.032-0.097-1.517m-11.047 6.942c-0.619-1.649-2.249-3.564-3.125-5.601 4.083 2.142 4.279 2.746 7.379 6.832z" fill="#279684" fill-rule="evenodd"/></g><g transform="translate(152.64 64.873)"><path d="m0 0c-0.571 0.572-0.927 0.519-1.514 0.488-0.635-0.273-1.909-1.315-3.137-1.899-1.705-0.812-2.686-0.311-3.543 0.25-0.419 0.273-0.811 0.561-1.244 0.715-1.649 0.581-5.164 3.067-6.404 4.376-0.297 0.317-0.503 0.718-0.336 1.417l0.343 5.33-0.026 9e-3c0.183 0.51 0.356 1.183 0.463 1.741 0.346 1.875 1.385 4.88 3.744 5.515l-0.476-3e-3c-2.608-0.644-3.147-3.339-3.57-5.408-0.028-0.312-0.122-1.165-0.247-1.819l-0.061 0.016c-2.184-1.812-5.877-3.863-8.69-3.536-0.834 0.096-1.999 1.832-2.352 2.563-0.142 0.325 2.303 2.663 2.65 3.006 3.099 3.102 5.062 3.389 8.02 6.311 0.818 0.811 1.745 2.707 3.06 4.35 1.617 2.027 3.378 3.978 4.719 5.419 0.988 1.061 3.256 0.355 4.058-1.014 0.969-1.652-2.46-7.857-3.628-9.018 0.184-0.251 0.016-0.148 0.27-0.463 2.114 0.338 4.042 0.6 6.053 0.896 0.825 0.118 1.665-0.574 1.928-1.405 0.293-0.925 2.55-3.962 3.414-6.115 0.477-1.19 1.6-3.217 0.526-4.455-0.844-0.97-2.917-3.046-1.668-4.29l-1.123-0.433c0.417 0.023 1.517-0.176 1.844-0.212 2.904-0.314 7.19-4.588 3.881-7.286-3.413-2.787-6.646 2.606-6.954 4.954m-6.435 16.55c2.611-2.983 4.173-3.735 7.254-6.092-0.626 1.271-2.471 3.41-3.34 6.122l-3.179 0.227-4e-3 9e-3c-0.696 0.18-1.549 0.171-2.306 0.142-2.051-0.074-4.735-0.173-5.855-2.753l-0.071-0.472c0.773 2.49 3.985 2.968 5.983 2.91 0.475 0.019 1.036-0.061 1.518-0.093m-6.94-11.051c1.65-0.617 3.562-2.249 5.602-3.121-2.146 4.079-2.75 4.279-6.836 7.374z" fill="#279684" fill-rule="evenodd"/></g><g transform="translate(153.74 152.46)"><path d="m0 0c-0.571-0.575-0.52-0.928-0.488-1.514 0.276-0.636 1.315-1.913 1.899-3.139 0.813-1.703 0.311-2.684-0.247-3.541-0.276-0.42-0.564-0.814-0.715-1.245-0.581-1.649-3.07-5.168-4.379-6.403-0.317-0.301-0.715-0.504-1.417-0.337l-5.33 0.34-5e-3 -0.022c-0.514 0.183-1.184 0.356-1.746 0.458-1.87 0.348-4.876 1.39-5.515 3.747l4e-3 -0.474c0.645-2.609 3.343-3.15 5.408-3.57 0.312-0.03 1.168-0.123 1.822-0.25l-0.019-0.058c1.816-2.186 3.863-5.881 3.539-8.691-0.099-0.834-1.832-1.998-2.563-2.355-0.327-0.138-2.663 2.307-3.01 2.653-3.101 3.1-3.387 5.062-6.31 8.021-0.812 0.818-2.703 1.744-4.35 3.056-2.027 1.621-3.978 3.378-5.414 4.723-1.063 0.988-0.357 3.256 1.012 4.058 1.653 0.966 7.857-2.46 9.018-3.628 0.248 0.182 0.145 0.016 0.459 0.266-0.337 2.117-0.596 4.045-0.891 6.053-0.123 0.825 0.57 1.669 1.402 1.931 0.927 0.292 3.961 2.551 6.113 3.413 1.194 0.479 3.218 1.602 4.457 0.527 0.969-0.843 3.044-2.916 4.292-1.671l0.43-1.12c-0.019 0.414 0.176 1.514 0.211 1.844 0.318 2.901 4.588 7.187 7.29 3.882 2.784-3.413-2.609-6.646-4.957-6.954m-16.547-6.436c2.98 2.612 3.731 4.174 6.092 7.253-1.27-0.628-3.413-2.473-6.12-3.339l-0.232-3.18-6e-3 -2e-3c-0.183-0.697-0.17-1.55-0.145-2.307 0.074-2.054 0.173-4.738 2.752-5.855l0.473-0.073c-2.49 0.776-2.964 3.987-2.91 5.985-0.016 0.472 0.064 1.033 0.096 1.518m11.049-6.942c0.615 1.649 2.249 3.564 3.125 5.601-4.085-2.142-4.284-2.746-7.379-6.832z" fill="#279684" fill-rule="evenodd"/></g></g></g></svg>
